<?xml version="1.0" encoding="utf-8"?>
<!-- Generator: Adobe Illustrator 25.1.0, SVG Export Plug-In . SVG Version: 6.00 Build 0)  -->
<svg version="1.1" id="Layer_2_1_" xmlns="http://www.w3.org/2000/svg" xmlns:xlink="http://www.w3.org/1999/xlink" x="0px" y="0px"
	 viewBox="0 0 1702 301" style="enable-background:new 0 0 1702 301;" xml:space="preserve">
<style type="text/css">
	.st0{fill:url(#SVGID_1_);}
	.st1{fill:url(#SVGID_2_);}
	.st2{fill:#1D1D1B;}
	.st3{fill:#50504E;}
	.st4{fill:url(#SVGID_3_);}
</style>
<g>
	<linearGradient id="SVGID_1_" gradientUnits="userSpaceOnUse" x1="1102.1804" y1="182.6467" x2="1102.1804" y2="25.283">
		<stop  offset="3.041752e-04" style="stop-color:#000000"/>
		<stop  offset="0.5" style="stop-color:#676767"/>
		<stop  offset="1" style="stop-color:#000000"/>
	</linearGradient>
	<path class="st0" d="M518,172.6c7.3-0.5,12.2-2,14.7-4.6c2.5-2.6,3.7-7.8,3.7-15.7V54.2c0-8.3-1.3-13.6-3.8-15.8
		c-2.5-2.2-7.4-3.7-14.6-4.5v-5.6h71.4c18.9,0,33.3,3.1,43.2,9.2c9.9,6.1,14.8,16.7,14.8,31.6c0,7.3-1.9,14.1-5.8,20.5
		c-3.9,6.4-10.2,11.5-19.1,15.4c-6.7,2.7-13.4,4.4-20.1,5c-6.7,0.6-16.7,0.9-29.9,0.9v41.4c0,8.2,1.4,13.5,4.1,16
		c2.7,2.5,7.9,3.9,15.4,4.2v5.6H518V172.6z M598.7,98.7c7-4.5,10.5-14.1,10.5-28.9c0-10.1-1.7-18.3-5.1-24.5
		c-3.4-6.2-9.9-9.3-19.5-9.3c-4.4,0-7.6,0.5-9.5,1.6c-1.9,1-2.9,3.1-2.9,6.1v59.6C585.5,103,594.3,101.5,598.7,98.7z M647.3,172.6
		c6.1-0.2,10.4-1,13-2.4c4.4-2.3,6.6-6.7,6.6-13.2V49.5c0-6.5-2.1-10.8-6.3-13c-2.5-1.4-6.9-2.2-13.3-2.6v-5.6h77.5v5.6
		c-9,0.3-15,1.5-18,3.8c-3,2.2-4.5,7.7-4.5,16.5V159c0,4.9,1.3,8.2,3.8,9.8c2.6,1.6,7.6,2.4,15,2.4c13.4,0,24.6-2.9,33.6-8.8
		c9.1-5.9,16.9-17.3,23.4-34.4h6.5l-9,50.3H647.3V172.6z M790,172.6c5.3-0.4,9.6-2.8,12.9-7.3c2.1-2.8,5.1-9,9-18.6l49.3-121.4h6.2
		l49.5,116.5c5.6,13.1,9.7,21.5,12.5,25.3c2.7,3.8,6.6,5.6,11.7,5.5v5.6h-71.8v-5.6c7.2-0.3,12-0.9,14.2-1.8
		c2.3-0.9,3.4-3.3,3.4-7.1c0-1.7-0.6-4.4-1.7-7.9c-0.7-2.1-1.7-4.6-2.9-7.6l-5.6-13.4h-49.8c-3.3,8.8-5.3,14.5-6.3,17.2
		c-1.9,5.7-2.9,9.9-2.9,12.5c0,3.2,2.1,5.5,6.4,6.9c2.5,0.8,6.3,1.2,11.4,1.3v5.6H790V172.6z M873.3,125.9L852,74.6h-1.9l-20,51.3
		H873.3z M935.5,28.3H1069l0.2,44.7h-6.4c-2.1-16-8.1-26.8-18-32.5c-5.6-3.1-13.9-4.8-24.9-5.1v116.8c0,8.2,1.4,13.6,4.3,16.3
		c2.9,2.7,8.8,4,17.8,4v5.6H963v-5.6c8.7,0,14.4-1.4,17.3-4.1c2.9-2.7,4.3-8.1,4.3-16.2V35.5c-10.8,0.3-19.1,2-24.9,5.1
		C949,46.4,943,57.2,941.6,73h-6.4L935.5,28.3z M1079.1,172.6c6.3-0.1,10.8-0.9,13.5-2.3c4.5-2.3,6.7-6.8,6.7-13.3V49.5
		c0-6.5-2.1-10.9-6.4-13.1c-2.6-1.4-7.2-2.2-13.9-2.5v-5.6h77.5v5.6c-6.9,0.3-11.7,1.1-14.3,2.4c-4.3,2.2-6.5,6.6-6.5,13.2V157
		c0,6.2,1.7,10.4,5.2,12.5c3.5,2.1,8.7,3.1,15.6,3.1v5.6h-77.5V172.6z M1165.1,172.6c8.2-0.2,13.5-1.8,15.9-4.7
		c2.4-2.9,3.6-7.2,3.6-12.9V49.9c-6.8-7.6-11-12-12.6-13.4c-1.6-1.3-3.8-2.2-6.5-2.5v-5.6h47l76.2,92.7h1.1V55.8
		c0-7.5-1.4-12.9-4.1-16.1c-2.7-3.2-8.2-5.1-16.4-5.8v-5.6h47.7v5.6c-6.9,1.1-11.6,2.7-13.9,4.6c-2.3,1.9-3.5,6.3-3.5,13v130.7h-6.2
		l-97.6-118.6h-1.5v87c0,6.8,0.9,11.6,2.8,14.5c3,4.6,9,7,18.2,7.4v5.6h-50.3V172.6z M1400.4,28.3v5.6c-8.6,0.3-14.3,1.6-17.2,4
		c-2.9,2.4-4.3,7.8-4.3,16.3v74.3c0,11.3,1.3,20,4,26.1c4.8,11.4,14.1,17.1,27.8,17.1c17,0,28.6-6.3,34.5-19c3.3-6.9,5-16.7,5-29.2
		V55.8c0-7.9-1.5-13.4-4.4-16.4c-2.9-3-8.6-4.8-17.2-5.5v-5.6h48.7v5.6c-7.1,1.4-11.8,3.1-14,5c-2.3,2-3.4,6.6-3.4,13.7v70.9
		c0,18.8-4.5,33.4-13.6,43.6c-9.1,10.3-23.4,15.4-42.9,15.4c-25.5,0-42.9-7.6-52.3-22.9c-5-8.1-7.5-18.5-7.5-31.3V54.2
		c0-8.3-1.1-13.6-3.3-15.7c-2.2-2.2-7.2-3.7-14.9-4.5v-5.6H1400.4z M1485.2,172.6c8.4-0.1,13.9-1.6,16.5-4.5
		c2.5-2.9,3.8-7.3,3.8-13.2V49.5c0-6-1.4-10-4.3-11.9c-2.9-1.9-8-3.1-15.4-3.7v-5.6h55.9l43.6,102.7h1.8l43.4-102.7h55.9v5.6
		c-7.5,0.6-12.6,2-15.4,4.1c-2.7,2.2-4.1,7.6-4.1,16.1v98.1c0,8.2,1.4,13.5,4.1,16c2.7,2.5,7.9,3.9,15.4,4.2v5.6h-73.6v-5.6
		c6.6-0.2,11.5-1.3,14.8-3.3c3.3-2,5-6.3,5-13V47.8h-1.6l-54.4,130.4h-5.9l-54.9-127.8h-1v100.3c0,7.4,1.4,12.8,4.1,16.2
		c2.7,3.4,8.8,5.3,18.2,5.7v5.6h-51.9V172.6z"/>
	<linearGradient id="SVGID_2_" gradientUnits="userSpaceOnUse" x1="1097.7029" y1="275.717" x2="1097.7029" y2="199.5647">
		<stop  offset="3.041752e-04" style="stop-color:#66A1D7"/>
		<stop  offset="0.5" style="stop-color:#93BDE3"/>
		<stop  offset="1" style="stop-color:#66A1D7"/>
	</linearGradient>
	<path class="st1" d="M515.8,270.9c4.1,0,6.7-0.8,7.9-2.2c1.2-1.4,1.8-3.5,1.8-6.3v-50.6c0-2.9-0.7-4.8-2.1-5.7
		c-1.4-0.9-3.9-1.5-7.4-1.8v-2.7H543l21,49.3h0.9l20.9-49.3h26.9v2.7c-3.6,0.3-6.1,0.9-7.4,2c-1.3,1.1-2,3.6-2,7.7v47.2
		c0,3.9,0.7,6.5,2,7.7c1.3,1.2,3.8,1.9,7.4,2v2.7h-35.4v-2.7c3.2-0.1,5.5-0.6,7.1-1.6c1.6-1,2.4-3,2.4-6.3v-52.1h-0.8l-26.1,62.7
		h-2.9l-26.4-61.4H530v48.2c0,3.6,0.7,6.2,2,7.8c1.3,1.6,4.2,2.5,8.7,2.7v2.7h-24.9V270.9z M630.1,270.9c2.6-0.2,4.6-1.3,6.2-3.5
		c1-1.4,2.4-4.3,4.3-9l23.7-58.4h3l23.8,56c2.7,6.3,4.7,10.3,6,12.2c1.3,1.8,3.2,2.7,5.6,2.6v2.7h-34.5v-2.7
		c3.5-0.1,5.8-0.4,6.8-0.9c1.1-0.5,1.6-1.6,1.6-3.4c0-0.8-0.3-2.1-0.8-3.8c-0.3-1-0.8-2.2-1.4-3.6l-2.7-6.5h-23.9
		c-1.6,4.2-2.6,7-3,8.3c-0.9,2.7-1.4,4.7-1.4,6c0,1.5,1,2.6,3.1,3.3c1.2,0.4,3,0.6,5.5,0.6v2.7h-21.8V270.9z M670.1,248.4
		l-10.3-24.7H659l-9.6,24.7H670.1z M720.2,270.9c3.6-0.2,6.1-0.9,7.4-2c1.3-1.2,2-3.7,2-7.7V214c0-4.1-0.8-6.8-2.3-8
		c-1-0.8-3.4-1.4-7-1.7v-2.7h34.3c7.1,0,12.9,0.7,17.3,2.2c8.5,3,12.8,8.5,12.8,16.3c0,5.8-2.2,10.4-6.7,13.7
		c-3.4,2.5-7,4.1-10.8,4.8l22.7,30.3c0.6,0.8,1.2,1.4,1.9,1.6c0.7,0.3,1.5,0.4,2.4,0.5v2.6h-22.2l-24.9-33.3h0v20.9
		c0,3.7,0.6,6.3,1.9,7.6c1.2,1.3,3.7,2,7.5,2.2v2.7h-36V270.9z M761.8,233.9c3-1.9,4.5-6.2,4.5-12.9c0-4.1-0.6-7.4-1.7-9.8
		c-2-4.1-5.6-6.1-10.8-6.1c-2.8,0-4.7,0.4-5.6,1.1c-0.9,0.7-1.3,1.9-1.3,3.5v27.1C753.8,236.7,758.8,235.8,761.8,233.9z
		 M811.1,270.9c3-0.1,5.2-0.4,6.5-1.1c2.2-1.1,3.2-3.2,3.2-6.4v-51.6c0-3.1-1-5.2-3.1-6.3c-1.2-0.7-3.5-1.1-6.7-1.2v-2.7h37.3v2.7
		c-3.3,0.1-5.6,0.5-6.9,1.1c-2.1,1.1-3.1,3.2-3.1,6.4v51.6c0,3,0.8,5,2.5,6c1.7,1,4.2,1.5,7.5,1.5v2.7h-37.3V270.9z M865.9,270.9
		c4-0.1,6.5-0.9,7.7-2.3c1.1-1.4,1.7-3.5,1.7-6.2v-50.5c-3.3-3.6-5.3-5.8-6-6.4c-0.8-0.6-1.8-1-3.1-1.2v-2.7h22.6l36.6,44.5h0.5
		v-31.3c0-3.6-0.7-6.2-2-7.7s-3.9-2.5-7.9-2.8v-2.7h22.9v2.7c-3.3,0.6-5.6,1.3-6.7,2.2c-1.1,0.9-1.7,3-1.7,6.3v62.8h-3l-46.9-57
		h-0.7v41.8c0,3.3,0.5,5.6,1.4,7c1.4,2.2,4.3,3.4,8.7,3.6v2.7h-24.2V270.9z M956.3,273.6v-2.7c3.1-0.1,5.2-0.5,6.5-1.2
		c2-1.1,3-3.2,3-6.2v-51.6c0-3.1-1-5.2-3.1-6.3c-1.2-0.7-3.3-1.1-6.4-1.2v-2.7h61.4V223h-2.6c-1.4-6.9-3.7-11.6-6.9-14.1
		c-3.2-2.5-9.2-3.8-17.7-3.8c-3.3,0-5.3,0.3-6.2,1s-1.3,2-1.3,4v24.7c6.1,0.1,10.2-1,12.3-3.3s3.8-6.4,4.9-12.5h2.7v36h-2.7
		c-0.8-6.1-2.3-10.3-4.7-12.8c-2.3-2.5-6.6-3.7-12.6-3.7v25.8c0,2.3,0.6,3.8,1.7,4.6c1.2,0.8,3.5,1.2,7.2,1.2c6.8,0,12.4-1.3,16.7-4
		c4.3-2.6,8.1-7.6,11.5-14.8h3l-4.3,22.2H956.3z M1083,248.7h3.1c1.7,8,4.4,13.8,8.2,17.4c3.8,3.6,8.1,5.4,13,5.4
		c4.8,0,8.1-1.2,10.1-3.7c2-2.5,3-5.1,3-7.8c0-3.2-1-5.8-3.1-7.8c-1.4-1.3-4.2-3-8.4-5.2l-6.8-3.4c-6.7-3.4-11.5-6.8-14.3-10.1
		c-2.8-3.3-4.2-7.4-4.2-12.3c0-5.2,1.8-10.1,5.5-14.6c3.7-4.5,9.3-6.8,16.9-6.8c3.9,0,7.6,0.6,11.2,1.8c3.6,1.2,5.7,1.8,6.2,1.8
		c1.2,0,2-0.3,2.4-1s0.8-1.6,1.1-2.7h3.2v23.2h-3c-1.4-5.4-3.8-10-7.4-13.9c-3.5-3.9-7.8-5.8-12.8-5.8c-3.5,0-6.3,1-8.4,2.9
		c-2.1,2-3.1,4.3-3.1,7.2c0,3.4,1,5.9,2.9,7.6c1.9,1.7,6.1,4.2,12.7,7.5l7.9,4c3.5,1.8,6.3,3.7,8.4,5.9c3.9,4,5.8,8.9,5.8,14.7
		c0,5.4-2.1,10.4-6.3,15.2s-10.9,7.2-20.1,7.2c-2.1,0-4.3-0.2-6.4-0.6c-2.2-0.4-4.3-1-6.4-1.8l-2-0.8c-0.5-0.1-0.9-0.3-1.4-0.3
		c-0.4-0.1-0.8-0.1-1.1-0.1c-1.1,0-1.8,0.3-2.3,1c-0.4,0.6-0.8,1.6-1.1,2.7h-3.1V248.7z M1150.3,273.6v-2.7c3.1-0.1,5.2-0.5,6.5-1.2
		c2-1.1,3-3.2,3-6.2v-51.6c0-3.1-1-5.2-3.1-6.3c-1.2-0.7-3.3-1.1-6.4-1.2v-2.7h61.4V223h-2.6c-1.4-6.9-3.7-11.6-6.9-14.1
		c-3.2-2.5-9.2-3.8-17.7-3.8c-3.3,0-5.3,0.3-6.2,1s-1.3,2-1.3,4v24.7c6.1,0.1,10.2-1,12.3-3.3s3.8-6.4,4.9-12.5h2.7v36h-2.7
		c-0.8-6.1-2.3-10.3-4.7-12.8c-2.3-2.5-6.6-3.7-12.6-3.7v25.8c0,2.3,0.6,3.8,1.7,4.6c1.2,0.8,3.5,1.2,7.2,1.2c6.8,0,12.4-1.3,16.7-4
		c4.3-2.6,8.1-7.6,11.5-14.8h3l-4.3,22.2H1150.3z M1232.7,270.9c3.6-0.2,6.1-0.9,7.4-2c1.3-1.2,2-3.7,2-7.7V214c0-4.1-0.8-6.8-2.3-8
		c-1-0.8-3.4-1.4-7-1.7v-2.7h34.3c7.1,0,12.9,0.7,17.3,2.2c8.5,3,12.8,8.5,12.8,16.3c0,5.8-2.2,10.4-6.7,13.7
		c-3.4,2.5-7,4.1-10.8,4.8l22.7,30.3c0.6,0.8,1.2,1.4,1.9,1.6c0.7,0.3,1.5,0.4,2.4,0.5v2.6h-22.2l-24.9-33.3h0v20.9
		c0,3.7,0.6,6.3,1.9,7.6c1.2,1.3,3.7,2,7.5,2.2v2.7h-36V270.9z M1274.3,233.9c3-1.9,4.5-6.2,4.5-12.9c0-4.1-0.6-7.4-1.7-9.8
		c-2-4.1-5.6-6.1-10.8-6.1c-2.8,0-4.7,0.4-5.6,1.1c-0.9,0.7-1.3,1.9-1.3,3.5v27.1C1266.3,236.7,1271.3,235.8,1274.3,233.9z
		 M1350,201.5v2.6c-3.8,0.2-6.3,0.5-7.4,1s-1.7,1.5-1.7,3.3c0,0.6,0,1.1,0.1,1.5s0.3,1,0.5,1.5l16.9,39.4h-0.2l14-36.1
		c0.3-0.8,0.6-1.6,0.8-2.5c0.4-1.4,0.6-2.5,0.6-3.3c0-2-0.6-3.3-1.8-3.8s-3.6-0.9-7.3-1.1v-2.6h22.7v2.6c-2.6,0.3-4.6,1-5.9,2.3
		c-1.3,1.2-2.6,3.4-3.8,6.5l-24.3,62.7h-2.8l-27.4-63.9c-1.1-2.6-2.2-4.4-3.4-5.5c-1.2-1.1-3-1.8-5.4-2v-2.6H1350z M1404.7,270.9
		c3-0.1,5.2-0.4,6.5-1.1c2.2-1.1,3.2-3.2,3.2-6.4v-51.6c0-3.1-1-5.2-3.1-6.3c-1.2-0.7-3.5-1.1-6.7-1.2v-2.7h37.3v2.7
		c-3.3,0.1-5.6,0.5-6.9,1.1c-2.1,1.1-3.1,3.2-3.1,6.4v51.6c0,3,0.8,5,2.5,6c1.7,1,4.2,1.5,7.5,1.5v2.7h-37.3V270.9z M1508.3,202.7
		c4.5,1.6,7.1,2.5,7.6,2.5c1.4,0,2.4-0.5,3.3-1.6c0.8-1,1.3-2.1,1.5-3.3h3v24.9h-2.7c-2.6-5.4-5.2-9.7-7.9-12.8
		c-5-5.8-10.6-8.6-16.9-8.6c-7.1,0-12.2,3.1-15.2,9.2c-3,6.2-4.5,14.4-4.5,24.8c0,7.6,0.9,13.9,2.7,18.8c3.3,9.2,9.4,13.8,18.4,13.8
		c5.5,0,10.6-1.5,15.3-4.6c2.7-1.8,5.9-4.6,9.6-8.5l3.2,2.6c-4.2,4.7-7.8,8-11,10.1c-5.6,3.7-11.9,5.6-18.7,5.6
		c-10.5,0-19.3-3.1-26.4-9.4c-7.9-6.9-11.8-16.2-11.8-27.9c0-11.6,3.8-21,11.3-28.2c7.1-6.7,15.8-10.1,26-10.1
		C1499.3,200.2,1503.8,201,1508.3,202.7z M1543.2,273.6v-2.7c3.1-0.1,5.2-0.5,6.5-1.2c2-1.1,3-3.2,3-6.2v-51.6c0-3.1-1-5.2-3.1-6.3
		c-1.2-0.7-3.3-1.1-6.4-1.2v-2.7h61.4V223h-2.6c-1.4-6.9-3.7-11.6-6.9-14.1c-3.2-2.5-9.2-3.8-17.7-3.8c-3.3,0-5.3,0.3-6.2,1
		s-1.3,2-1.3,4v24.7c6.1,0.1,10.2-1,12.3-3.3s3.8-6.4,4.9-12.5h2.7v36h-2.7c-0.8-6.1-2.3-10.3-4.7-12.8c-2.3-2.5-6.6-3.7-12.6-3.7
		v25.8c0,2.3,0.6,3.8,1.7,4.6c1.2,0.8,3.5,1.2,7.2,1.2c6.8,0,12.4-1.3,16.7-4c4.3-2.6,8.1-7.6,11.5-14.8h3l-4.3,22.2H1543.2z
		 M1629.4,248.7h3.1c1.7,8,4.4,13.8,8.2,17.4c3.8,3.6,8.1,5.4,13,5.4c4.8,0,8.1-1.2,10.1-3.7c2-2.5,3-5.1,3-7.8c0-3.2-1-5.8-3.1-7.8
		c-1.4-1.3-4.2-3-8.4-5.2l-6.8-3.4c-6.7-3.4-11.5-6.8-14.3-10.1c-2.8-3.3-4.2-7.4-4.2-12.3c0-5.2,1.8-10.1,5.5-14.6
		c3.7-4.5,9.3-6.8,16.9-6.8c3.9,0,7.6,0.6,11.2,1.8c3.6,1.2,5.7,1.8,6.2,1.8c1.2,0,2-0.3,2.4-1s0.8-1.6,1.1-2.7h3.2v23.2h-3
		c-1.4-5.4-3.8-10-7.4-13.9c-3.5-3.9-7.8-5.8-12.8-5.8c-3.5,0-6.3,1-8.4,2.9c-2.1,2-3.1,4.3-3.1,7.2c0,3.4,1,5.9,2.9,7.6
		c1.9,1.7,6.1,4.2,12.7,7.5l7.9,4c3.5,1.8,6.3,3.7,8.4,5.9c3.9,4,5.8,8.9,5.8,14.7c0,5.4-2.1,10.4-6.3,15.2s-10.9,7.2-20.1,7.2
		c-2.1,0-4.3-0.2-6.4-0.6c-2.2-0.4-4.3-1-6.4-1.8l-2-0.8c-0.5-0.1-0.9-0.3-1.4-0.3c-0.4-0.1-0.8-0.1-1.1-0.1c-1.1,0-1.8,0.3-2.3,1
		c-0.4,0.6-0.8,1.6-1.1,2.7h-3.1V248.7z"/>
	<path class="st2" d="M371.5,63.6c-9.4-12.8-59.4,0.9-109.7,18.9c9.3-13.1,17-24,19.5-27.7c7.5-11,3.3-15.7,3.3-15.7
		c-6.1-8.3-37.1-0.5-69.9,10.9c4.3-6.1,7.7-10.9,9-12.8c4.7-6.9,2.1-9.8,2.1-9.8c-8.7-11.8-97,28.2-97,28.2
		c66.6-23.9,75.8-18.7,77.8-16.1c1.5,1.9-1.5,7.2-6.9,15.8c-36.3,13.5-70.4,28.9-70.4,28.9C236.1,46.1,250.8,54.6,254,58.7
		c2.8,3.6-4.3,14.4-15.7,32.6c-47.8,18.2-89.9,37.3-89.9,37.3c153.3-55.1,174.5-42.9,179.1-37c4.6,6-9.3,25.4-30.1,58.7
		c-12.4,19.9-25.3,35.5-33.7,44.9c-5.6,6.3-13.3,10.2-21.7,11l-85.8,8.3h103.4c10,0,19.3-4.8,25.1-12.9c21.4-30,73.5-102.9,82-115.4
		C377.5,70.3,371.5,63.6,371.5,63.6z"/>
	<g>
		<path class="st3" d="M264.2,86.5C313.1,69,361.7,55.6,373,66.6c-0.5-2-1.3-3-1.3-3c-9-12.2-55-0.3-103,16.6
			C267.2,82.2,265.7,84.3,264.2,86.5z"/>
		<path class="st3" d="M217.2,54.1c31.1-10.8,60.6-18.4,68.7-12c-0.3-1.9-1.1-2.8-1.1-2.8c-5.7-7.8-33.1-1.5-63.3,8.6
			C220.3,49.7,218.8,51.8,217.2,54.1z"/>
		<path class="st3" d="M226.7,30.3c0.1-1.9-0.7-2.8-0.7-2.8c-8.7-11.8-97,28.2-97,28.2c22.8-8.2,38.8-13,50.2-15.6
			C199.6,32.8,220.2,27,226.7,30.3z"/>
		<path class="st3" d="M202.2,59.5c5.4-8.6,8.4-13.8,6.9-15.8c-0.4-0.5-0.9-1-2-1.4c-0.7,2.7-3.3,7.1-7.2,13.3
			c-36.3,13.5-70.4,28.9-70.4,28.9c21.9-7.9,39.9-13.8,54.7-18.1C190.1,64,196.1,61.7,202.2,59.5z"/>
		<path class="st3" d="M244.4,210.1c8.4-0.8,16.1-4.7,21.7-11c8.4-9.4,21.3-25,33.7-44.9c20.8-33.3,34.7-52.7,30.1-58.7
			c-0.3-0.4-0.8-0.9-1.3-1.4c0.5,8-12.5,26.6-30.9,56.1c-12.4,19.9-25.3,35.5-33.7,44.9c-5.6,6.3-13.3,10.2-21.7,11l-85.8,8.3h43.4
			L244.4,210.1z"/>
		<path class="st3" d="M240.7,95.2c11.5-18.1,18.5-28.9,15.7-32.6c-0.4-0.5-0.9-1-1.6-1.5c-0.3,5-6.8,15-16.3,30.1
			c-47.8,18.2-89.9,37.3-89.9,37.3c21.2-7.6,39.8-13.9,56.2-19.2C215.9,104.9,228.1,100,240.7,95.2z"/>
	</g>
	<linearGradient id="SVGID_3_" gradientUnits="userSpaceOnUse" x1="243.8387" y1="273.104" x2="243.8387" y2="243.2048">
		<stop  offset="0.3575" style="stop-color:#66A1D7"/>
		<stop  offset="0.6218" style="stop-color:#93BDE3"/>
	</linearGradient>
	<path class="st4" d="M16.4,256.1c-1.8-1.1-0.5-3.9,1.5-3.3c1.4,0.4,2.9,0.9,4.3,1.3c1.2,0.3,2.5,0.7,3.7,1c1.2,0.3,2.5,0.7,3.7,1
		c2.4,0.6,4.9,1.1,7.3,1.5c4.9,0.9,9.7,1.2,14.5,1.2c2.4-0.1,4.9-0.1,7.3-0.4c2.4-0.2,4.8-0.5,7.2-1c4.7-0.9,9.1-2.3,13.6-4.2
		c2.3-0.9,4.6-2,7.2-3c2.5-1,5.2-2,7.9-2.8c5.5-1.7,11.2-2.5,16.7-2.9c5.5-0.3,11.1-0.3,16.8,0.4c2.9,0.3,5.8,0.9,8.6,1.7
		c2.9,0.8,5.7,1.8,8.3,3c2.6,1.1,5,2.3,7.2,3.3c2.2,1,4.3,1.8,6.4,2.5c4.2,1.3,8.7,1.9,13.4,2.1c4.8,0.2,9.6,0,14.2-0.7
		c4.6-0.7,8.9-1.8,13.4-3.5c4.5-1.7,9.3-3.9,14.7-5.7c5.4-1.8,11.2-3.1,16.8-3.7c2.8-0.3,5.7-0.4,8.5-0.5c2.8,0,5.6,0,8.5,0.3
		c2.9,0.2,5.8,0.6,8.7,1.3c2.9,0.6,5.8,1.5,8.6,2.6c2.8,1.1,5.4,2.4,7.7,3.6c2.4,1.2,4.5,2.4,6.6,3.3c4.1,1.9,8.2,2.9,12.8,3.5
		c2.3,0.3,4.6,0.4,7,0.4c2.4,0,4.8,0,7.1-0.2c4.6-0.4,9-1.2,13.2-2.8c2.1-0.8,4.2-1.8,6.5-2.8c2.3-1.1,4.7-2.3,7.3-3.4
		c2.6-1.1,5.4-2.2,8.3-2.9c2.9-0.8,5.7-1.4,8.6-1.7c2.9-0.4,5.7-0.5,8.5-0.6c2.8-0.1,5.6,0,8.4,0.2c5.6,0.4,11.4,1.3,16.9,3
		c5.5,1.7,10.6,4.1,15,6c4.5,1.9,8.8,3.4,13.4,4.3c2.3,0.4,4.7,0.8,7.1,1.1c2.4,0.3,4.9,0.4,7.3,0.5c4.9,0.1,9.7-0.1,14.3-1
		c4.7-0.9,9.2-2.6,13.8-4.7c4.6-2.2,9.3-4.6,14.2-6.6c0.1,0,0.1,0,0.2-0.1c2-0.8,3.5,2,1.7,3.2c0,0-0.1,0.1-0.1,0.1
		c-4.3,2.8-8.3,6-12.7,9.1c-2.2,1.5-4.5,3-6.9,4.3c-2.5,1.3-5,2.4-7.7,3.4c-5.3,1.9-10.9,2.8-16.4,3.4c-2.7,0.2-5.5,0.4-8.3,0.4
		c-2.8,0-5.6-0.1-8.4-0.5c-5.6-0.6-11.4-2.2-16.5-4.2c-2.6-1-5-2-7.3-2.9c-2.3-0.9-4.5-1.7-6.7-2.3c-4.4-1.3-9-1.9-13.7-2.2
		c-2.4-0.1-4.8-0.1-7.2,0c-2.4,0.1-4.7,0.3-7,0.6c-4.6,0.7-8.7,1.9-13,3.8c-2.1,1-4.3,2.1-6.7,3.3c-2.4,1.2-5,2.4-7.7,3.4
		c-5.5,2.1-11.4,3.3-17.1,3.8c-2.9,0.3-5.7,0.3-8.5,0.3c-2.8,0-5.7-0.2-8.5-0.5c-2.9-0.3-5.8-0.8-8.7-1.6c-2.9-0.8-5.8-1.8-8.4-3
		c-2.7-1.2-5.1-2.5-7.4-3.6c-2.3-1.2-4.3-2.2-6.4-3c-4.1-1.6-8.3-2.5-13-2.9c-2.3-0.2-4.7-0.3-7.1-0.2c-2.4,0-4.8,0.2-7.1,0.4
		c-4.7,0.5-9.1,1.5-13.5,3c-4.4,1.5-9.1,3.7-14.3,5.6c-2.6,1-5.3,1.9-8.1,2.6c-2.8,0.7-5.7,1.2-8.5,1.6c-2.8,0.4-5.7,0.6-8.5,0.7
		c-2.8,0.1-5.6,0.1-8.4-0.1c-5.6-0.3-11.5-1.2-17.2-3c-2.8-0.9-5.5-2.1-8-3.3c-2.5-1.2-4.7-2.4-6.9-3.3c-2.1-1-4.2-1.8-6.3-2.4
		c-2.1-0.6-4.3-1.1-6.6-1.4c-2.3-0.3-4.6-0.5-7-0.6c-2.4-0.1-4.8-0.1-7.2,0c-4.8,0.2-9.4,0.8-13.9,1.9c-4.5,1.1-9,3-14.2,4.8
		c-2.6,0.9-5.2,1.8-8,2.4c-2.7,0.7-5.6,1.2-8.3,1.5c-2.8,0.3-5.6,0.5-8.3,0.5c-2.8,0.1-5.4,0-8.3-0.3c-5.6-0.5-11-1.7-16.2-3.6
		c-2.6-0.9-5.1-2-7.5-3.1c-1.2-0.6-2.4-1.2-3.6-1.8c-1.2-0.6-2.3-1.3-3.5-2C19,257.7,17.7,256.9,16.4,256.1z"/>
</g>
</svg>
