<?xml version="1.0" encoding="utf-8"?>
<!-- Generator: Adobe Illustrator 25.1.0, SVG Export Plug-In . SVG Version: 6.00 Build 0)  -->
<svg version="1.1" id="Layer_1" xmlns="http://www.w3.org/2000/svg" xmlns:xlink="http://www.w3.org/1999/xlink" x="0px" y="0px"
	 viewBox="0 0 200 80.4" style="enable-background:new 0 0 200 80.4;" xml:space="preserve">
<style type="text/css">
	.st0{fill:#212B59;}
	.st1{fill:url(#SVGID_1_);}
	.st2{fill:url(#SVGID_2_);}
</style>
<g>
	<g>
		<path class="st0" d="M123.3,49.9c-1.9,6.7-7.7,11.2-15.8,11.2c-9.3,0-16.8-7.6-16.8-17.1c0-9.5,7.5-17.2,16.8-17.2
			c7.9,0,14.5,5,16.1,13.7l-23.1,9.7c1.7,2.2,4.1,3.5,7,3.5c2.7,0,5.5-1.2,6.9-3.8H123.3z M113.9,37.1c-1.5-1.8-3.8-2.9-6.5-2.9
			c-4.8,0-8.7,3.8-8.9,9.4L113.9,37.1z"/>
		<path class="st0" d="M143.9,34.9c-5.3-1-8.9,1.9-8.9,6.5v18.9h-8.4V41.4c0-9.3,6.4-15.8,17.3-14.4V34.9z"/>
		<path class="st0" d="M163,60.3c-9.6,1-14.7-4.8-14.7-13.7V19.3h8.4v8.3h5.9v7.4h-5.9v11.6c0,4.6,2.1,6.3,6.3,6V60.3z"/>
		<path class="st0" d="M200,60.3h-7.9v-3.4c-2.5,2.7-6,4.1-10,4.1c-8.6,0-15.7-7.6-15.7-17c0-9.5,6.9-17.2,16.8-17.2
			c9.8,0,16.8,7.7,16.8,17.2V60.3z M183.2,34.7c-4.6,0-8.4,4-8.4,9.4c0,5.2,3.7,9.2,8.4,9.2c4.6,0,8.4-4.1,8.4-9.2
			C191.6,38.9,187.9,34.7,183.2,34.7z"/>
	</g>
	<g>
		<linearGradient id="SVGID_1_" gradientUnits="userSpaceOnUse" x1="0" y1="47.0747" x2="62.4963" y2="47.0747">
			<stop  offset="0" style="stop-color:#212B59"/>
			<stop  offset="0.9976" style="stop-color:#00A8E4"/>
		</linearGradient>
		<path class="st1" d="M9.6,18.5c0,2.6-2.1,4.8-4.8,4.8S0,21.1,0,18.5s2.1-4.8,4.8-4.8S9.6,15.9,9.6,18.5z M4.8,28
			C2.1,28,0,30.2,0,32.8s2.1,4.8,4.8,4.8s4.8-2.1,4.8-4.8S7.4,28,4.8,28z M4.8,42.3c-2.6,0-4.8,2.1-4.8,4.8c0,2.6,2.1,4.8,4.8,4.8
			s4.8-2.1,4.8-4.8C9.6,44.4,7.4,42.3,4.8,42.3z M4.8,56.6c-2.6,0-4.8,2.1-4.8,4.8c0,2.6,2.1,4.8,4.8,4.8s4.8-2.1,4.8-4.8
			C9.6,58.7,7.4,56.6,4.8,56.6z M4.8,70.9C2.1,70.9,0,73,0,75.6c0,2.6,2.1,4.8,4.8,4.8s4.8-2.1,4.8-4.8C9.6,73,7.4,70.9,4.8,70.9z
			 M33.7,14.9c-2,0-3.6,1.6-3.6,3.6s1.6,3.6,3.6,3.6c2,0,3.6-1.6,3.6-3.6S35.7,14.9,33.7,14.9z M33.7,43.5c-2,0-3.6,1.6-3.6,3.6
			c0,2,1.6,3.6,3.6,3.6c2,0,3.6-1.6,3.6-3.6C37.3,45.1,35.7,43.5,33.7,43.5z M33.7,72.1c-2,0-3.6,1.6-3.6,3.6s1.6,3.6,3.6,3.6
			c2,0,3.6-1.6,3.6-3.6S35.7,72.1,33.7,72.1z M46.4,15.5c-1.7,0-3,1.3-3,3c0,1.7,1.3,3,3,3c1.7,0,3-1.3,3-3
			C49.4,16.9,48,15.5,46.4,15.5z M60,44.6c-1.4,0-2.5,1.1-2.5,2.5s1.1,2.5,2.5,2.5c1.4,0,2.5-1.1,2.5-2.5S61.4,44.6,60,44.6z M60,21
			c1.4,0,2.5-1.1,2.5-2.5c0-1.4-1.1-2.5-2.5-2.5c-1.4,0-2.5,1.1-2.5,2.5C57.5,19.9,58.6,21,60,21z M60,73.1c-1.4,0-2.5,1.1-2.5,2.5
			c0,1.4,1.1,2.5,2.5,2.5c1.4,0,2.5-1.1,2.5-2.5C62.5,74.3,61.4,73.1,60,73.1z M46.4,44.1c-1.7,0-3,1.3-3,3c0,1.7,1.3,3,3,3
			c1.7,0,3-1.3,3-3C49.4,45.4,48,44.1,46.4,44.1z M46.4,72.7c-1.7,0-3,1.3-3,3c0,1.7,1.3,3,3,3c1.7,0,3-1.3,3-3
			C49.4,74,48,72.7,46.4,72.7z M20,14.3c-2.3,0-4.2,1.9-4.2,4.2c0,2.3,1.9,4.2,4.2,4.2c2.3,0,4.2-1.9,4.2-4.2
			C24.1,16.2,22.2,14.3,20,14.3z M20,42.9c-2.3,0-4.2,1.9-4.2,4.2c0,2.3,1.9,4.2,4.2,4.2c2.3,0,4.2-1.9,4.2-4.2
			C24.1,44.8,22.2,42.9,20,42.9z M20,71.5c-2.3,0-4.2,1.9-4.2,4.2c0,2.3,1.9,4.2,4.2,4.2c2.3,0,4.2-1.9,4.2-4.2
			C24.1,73.4,22.2,71.5,20,71.5z"/>
		<linearGradient id="SVGID_2_" gradientUnits="userSpaceOnUse" x1="17.0057" y1="33.3514" x2="79.9053" y2="33.3514">
			<stop  offset="0" style="stop-color:#FFCD1C"/>
			<stop  offset="0.4993" style="stop-color:#EF7D00"/>
			<stop  offset="1" style="stop-color:#B11917"/>
		</linearGradient>
		<path class="st2" d="M79.9,61.9c0,2.6-2.1,4.8-4.8,4.8c-2.6,0-4.8-2.1-4.8-4.8c0-2.6,2.1-4.8,4.8-4.8
			C77.8,57.1,79.9,59.3,79.9,61.9z M75.1,42.9c-2.6,0-4.8,2.1-4.8,4.8c0,2.6,2.1,4.8,4.8,4.8c2.6,0,4.8-2.1,4.8-4.8
			C79.9,45,77.8,42.9,75.1,42.9z M75.1,28.6c-2.6,0-4.8,2.1-4.8,4.8s2.1,4.8,4.8,4.8c2.6,0,4.8-2.1,4.8-4.8S77.8,28.6,75.1,28.6z
			 M75.1,14.3c-2.6,0-4.8,2.1-4.8,4.8c0,2.6,2.1,4.8,4.8,4.8c2.6,0,4.8-2.1,4.8-4.8C79.9,16.4,77.8,14.3,75.1,14.3z M75.1,9.6
			c2.6,0,4.8-2.1,4.8-4.8c0-2.6-2.1-4.8-4.8-4.8c-2.6,0-4.8,2.1-4.8,4.8C70.3,7.4,72.5,9.6,75.1,9.6z M46.2,58.4
			c-2,0-3.6,1.6-3.6,3.6c0,2,1.6,3.6,3.6,3.6c2,0,3.6-1.6,3.6-3.6C49.7,60,48.1,58.4,46.2,58.4z M46.2,29.8c-2,0-3.6,1.6-3.6,3.6
			c0,2,1.6,3.6,3.6,3.6c2,0,3.6-1.6,3.6-3.6C49.7,31.4,48.1,29.8,46.2,29.8z M46.2,1.2c-2,0-3.6,1.6-3.6,3.6c0,2,1.6,3.6,3.6,3.6
			c2,0,3.6-1.6,3.6-3.6C49.7,2.8,48.1,1.2,46.2,1.2z M33.5,58.5c-1.9,0-3.4,1.5-3.4,3.4c0,1.9,1.5,3.4,3.4,3.4
			c1.9,0,3.4-1.5,3.4-3.4C36.9,60,35.4,58.5,33.5,58.5z M19.9,30.4c-1.6,0-2.9,1.3-2.9,2.9c0,1.6,1.3,2.9,2.9,2.9
			c1.6,0,2.9-1.3,2.9-2.9C22.9,31.7,21.5,30.4,19.9,30.4z M19.9,59c-1.6,0-2.9,1.3-2.9,2.9c0,1.6,1.3,2.9,2.9,2.9
			c1.6,0,2.9-1.3,2.9-2.9C22.9,60.3,21.5,59,19.9,59z M19.9,1.9c-1.6,0-2.9,1.3-2.9,2.9c0,1.6,1.3,2.9,2.9,2.9
			c1.6,0,2.9-1.3,2.9-2.9C22.9,3.2,21.5,1.9,19.9,1.9z M33.5,30c-1.9,0-3.4,1.5-3.4,3.4c0,1.9,1.5,3.4,3.4,3.4
			c1.9,0,3.4-1.5,3.4-3.4C36.9,31.5,35.4,30,33.5,30z M33.5,1.4c-1.9,0-3.4,1.5-3.4,3.4c0,1.9,1.5,3.4,3.4,3.4
			c1.9,0,3.4-1.5,3.4-3.4C36.9,2.9,35.4,1.4,33.5,1.4z M60,57.8c-2.3,0-4.2,1.9-4.2,4.2c0,2.3,1.9,4.2,4.2,4.2
			c2.3,0,4.2-1.9,4.2-4.2C64.1,59.6,62.2,57.8,60,57.8z M60,29.2c-2.3,0-4.2,1.9-4.2,4.2c0,2.3,1.9,4.2,4.2,4.2
			c2.3,0,4.2-1.9,4.2-4.2C64.1,31.1,62.2,29.2,60,29.2z M60,0.6c-2.3,0-4.2,1.9-4.2,4.2c0,2.3,1.9,4.2,4.2,4.2
			c2.3,0,4.2-1.9,4.2-4.2C64.1,2.5,62.2,0.6,60,0.6z"/>
	</g>
</g>
</svg>
