<?xml version="1.0" encoding="utf-8"?>
<!-- Generator: Adobe Illustrator 25.0.1, SVG Export Plug-In . SVG Version: 6.00 Build 0)  -->
<svg version="1.1" id="Layer_2" xmlns="http://www.w3.org/2000/svg" xmlns:xlink="http://www.w3.org/1999/xlink" x="0px" y="0px"
	 viewBox="0 0 1702 301" style="enable-background:new 0 0 1702 301;" xml:space="preserve">
<style type="text/css">
	.st0{fill:#FFFFFF;}
</style>
<g>
	<path class="st0" d="M513.8,174c7.3-0.5,12.2-2,14.7-4.6c2.5-2.6,3.7-7.8,3.7-15.7V55.6c0-8.3-1.3-13.6-3.8-15.8
		c-2.5-2.2-7.4-3.7-14.6-4.5v-5.6h71.4c18.9,0,33.3,3.1,43.2,9.2c9.9,6.1,14.8,16.7,14.8,31.6c0,7.3-1.9,14.1-5.8,20.5
		c-3.9,6.4-10.2,11.5-19.1,15.4c-6.7,2.7-13.4,4.4-20.1,5c-6.7,0.6-16.7,0.9-29.9,0.9v41.4c0,8.2,1.4,13.5,4.1,16
		c2.7,2.5,7.9,3.9,15.4,4.2v5.6h-73.9V174z M594.6,100.2c7-4.5,10.5-14.1,10.5-28.9c0-10.1-1.7-18.3-5.1-24.5
		c-3.4-6.2-9.9-9.3-19.5-9.3c-4.4,0-7.6,0.5-9.5,1.6c-1.9,1-2.9,3.1-2.9,6.1v59.6C581.4,104.5,590.2,103,594.6,100.2z"/>
	<path class="st0" d="M643.2,174c6.1-0.2,10.4-1,13-2.4c4.4-2.3,6.6-6.7,6.6-13.2V51c0-6.5-2.1-10.8-6.3-13
		c-2.5-1.4-6.9-2.2-13.3-2.6v-5.6h77.5v5.6c-9,0.3-15,1.5-18,3.8c-3,2.2-4.5,7.7-4.5,16.5v104.8c0,4.9,1.3,8.2,3.8,9.8
		c2.6,1.6,7.6,2.4,15,2.4c13.4,0,24.6-2.9,33.6-8.8c9.1-5.9,16.9-17.3,23.4-34.4h6.5l-9,50.3H643.2V174z"/>
	<path class="st0" d="M785.9,174c5.3-0.4,9.6-2.8,12.9-7.3c2.1-2.8,5.1-9,9-18.6L857,26.7h6.2l49.5,116.5
		c5.6,13.1,9.7,21.5,12.5,25.3c2.7,3.8,6.6,5.6,11.7,5.5v5.6h-71.8V174c7.2-0.3,12-0.9,14.2-1.8c2.3-0.9,3.4-3.3,3.4-7.1
		c0-1.7-0.6-4.4-1.7-7.9c-0.7-2.1-1.7-4.6-2.9-7.6l-5.6-13.4h-49.8c-3.3,8.8-5.3,14.5-6.3,17.2c-1.9,5.7-2.9,9.9-2.9,12.5
		c0,3.2,2.1,5.5,6.4,6.9c2.5,0.8,6.3,1.2,11.4,1.3v5.6h-45.3V174z M869.1,127.3L847.8,76H846l-20,51.3H869.1z"/>
	<path class="st0" d="M931.3,29.8h133.5l0.2,44.7h-6.4c-2.1-16-8.1-26.8-18-32.5c-5.6-3.1-13.9-4.8-24.9-5.1v116.8
		c0,8.2,1.4,13.6,4.3,16.3c2.9,2.7,8.8,4,17.8,4v5.6h-79.1V174c8.7,0,14.4-1.4,17.3-4.1c2.9-2.7,4.3-8.1,4.3-16.2V36.9
		c-10.8,0.3-19.1,2-24.9,5.1c-10.6,5.8-16.6,16.6-18,32.5h-6.4L931.3,29.8z"/>
	<path class="st0" d="M1074.9,174c6.3-0.1,10.8-0.9,13.5-2.3c4.5-2.3,6.7-6.8,6.7-13.3V51c0-6.5-2.1-10.9-6.4-13.1
		c-2.6-1.4-7.2-2.2-13.9-2.5v-5.6h77.5v5.6c-6.9,0.3-11.7,1.1-14.3,2.4c-4.3,2.2-6.5,6.6-6.5,13.2v107.4c0,6.2,1.7,10.4,5.2,12.5
		c3.5,2.1,8.7,3.1,15.6,3.1v5.6h-77.5V174z"/>
	<path class="st0" d="M1161,174c8.2-0.2,13.5-1.8,15.9-4.7c2.4-2.9,3.6-7.2,3.6-12.9V51.3c-6.8-7.6-11-12-12.6-13.4
		c-1.6-1.3-3.8-2.2-6.5-2.5v-5.6h47l76.2,92.7h1.1V57.3c0-7.5-1.4-12.9-4.1-16.1c-2.7-3.2-8.2-5.1-16.4-5.8v-5.6h47.7v5.6
		c-6.9,1.1-11.6,2.7-13.9,4.6c-2.3,1.9-3.5,6.3-3.5,13v130.7h-6.2l-97.6-118.6h-1.5v87c0,6.8,0.9,11.6,2.8,14.5c3,4.6,9,7,18.2,7.4
		v5.6H1161V174z"/>
	<path class="st0" d="M1396.2,29.8v5.6c-8.6,0.3-14.3,1.6-17.2,4c-2.9,2.4-4.3,7.8-4.3,16.3V130c0,11.3,1.3,20,4,26.1
		c4.8,11.4,14.1,17.1,27.8,17.1c17,0,28.6-6.3,34.5-19c3.3-6.9,5-16.7,5-29.2V57.3c0-7.9-1.5-13.4-4.4-16.4c-2.9-3-8.6-4.8-17.2-5.5
		v-5.6h48.7v5.6c-7.1,1.4-11.8,3.1-14,5c-2.3,2-3.4,6.6-3.4,13.7v70.9c0,18.8-4.5,33.4-13.6,43.6c-9.1,10.3-23.4,15.4-42.9,15.4
		c-25.5,0-42.9-7.6-52.3-22.9c-5-8.1-7.5-18.5-7.5-31.3V55.6c0-8.3-1.1-13.6-3.3-15.7c-2.2-2.2-7.2-3.7-14.9-4.5v-5.6H1396.2z"/>
	<path class="st0" d="M1481,174c8.4-0.1,13.9-1.6,16.5-4.5c2.5-2.9,3.8-7.3,3.8-13.2V51c0-6-1.4-10-4.3-11.9
		c-2.9-1.9-8-3.1-15.4-3.7v-5.6h55.9l43.6,102.7h1.8l43.4-102.7h55.9v5.6c-7.5,0.6-12.6,2-15.4,4.1c-2.7,2.2-4.1,7.6-4.1,16.1v98.1
		c0,8.2,1.4,13.5,4.1,16c2.7,2.5,7.9,3.9,15.4,4.2v5.6h-73.6V174c6.6-0.2,11.5-1.3,14.8-3.3c3.3-2,5-6.3,5-13V49.3h-1.6l-54.4,130.4
		h-5.9l-54.9-127.8h-1v100.3c0,7.4,1.4,12.8,4.1,16.2c2.7,3.4,8.8,5.3,18.2,5.7v5.6H1481V174z"/>
</g>
<g>
	<path class="st0" d="M511.7,272.3c4.1,0,6.7-0.8,7.9-2.2c1.2-1.4,1.8-3.5,1.8-6.3v-50.6c0-2.9-0.7-4.8-2.1-5.7
		c-1.4-0.9-3.9-1.5-7.4-1.8V203h26.9l21,49.3h0.9l20.9-49.3h26.9v2.7c-3.6,0.3-6.1,0.9-7.4,2c-1.3,1.1-2,3.6-2,7.7v47.2
		c0,3.9,0.7,6.5,2,7.7c1.3,1.2,3.8,1.9,7.4,2v2.7H573v-2.7c3.2-0.1,5.5-0.6,7.1-1.6c1.6-1,2.4-3,2.4-6.3v-52.1h-0.8L555.6,275h-2.9
		l-26.4-61.4h-0.5v48.2c0,3.6,0.7,6.2,2,7.8c1.3,1.6,4.2,2.5,8.7,2.7v2.7h-24.9V272.3z"/>
	<path class="st0" d="M626,272.3c2.6-0.2,4.6-1.3,6.2-3.5c1-1.4,2.4-4.3,4.3-9l23.7-58.4h3l23.8,56c2.7,6.3,4.7,10.3,6,12.2
		c1.3,1.8,3.2,2.7,5.6,2.6v2.7H664v-2.7c3.5-0.1,5.8-0.4,6.8-0.9c1.1-0.5,1.6-1.6,1.6-3.4c0-0.8-0.3-2.1-0.8-3.8
		c-0.3-1-0.8-2.2-1.4-3.6l-2.7-6.5h-23.9c-1.6,4.2-2.6,7-3,8.3c-0.9,2.7-1.4,4.7-1.4,6c0,1.5,1,2.6,3.1,3.3c1.2,0.4,3,0.6,5.5,0.6
		v2.7H626V272.3z M666,249.9l-10.3-24.7h-0.9l-9.6,24.7H666z"/>
	<path class="st0" d="M716.1,272.3c3.6-0.2,6.1-0.9,7.4-2c1.3-1.2,2-3.7,2-7.7v-47.2c0-4.1-0.8-6.8-2.3-8c-1-0.8-3.4-1.4-7-1.7V203
		h34.3c7.1,0,12.9,0.7,17.3,2.2c8.5,3,12.8,8.5,12.8,16.3c0,5.8-2.2,10.4-6.7,13.7c-3.4,2.5-7,4.1-10.8,4.8l22.7,30.3
		c0.6,0.8,1.2,1.4,1.9,1.6c0.7,0.3,1.5,0.4,2.4,0.5v2.6h-22.2l-24.9-33.3h0v20.9c0,3.7,0.6,6.3,1.9,7.6c1.2,1.3,3.7,2,7.5,2.2v2.7
		h-36V272.3z M757.7,235.3c3-1.9,4.5-6.2,4.5-12.9c0-4.1-0.6-7.4-1.7-9.8c-2-4.1-5.6-6.1-10.8-6.1c-2.8,0-4.7,0.4-5.6,1.1
		c-0.9,0.7-1.3,1.9-1.3,3.5v27.1C749.7,238.2,754.7,237.2,757.7,235.3z"/>
	<path class="st0" d="M806.9,272.3c3-0.1,5.2-0.4,6.5-1.1c2.2-1.1,3.2-3.2,3.2-6.4v-51.6c0-3.1-1-5.2-3.1-6.3
		c-1.2-0.7-3.5-1.1-6.7-1.2V203h37.3v2.7c-3.3,0.1-5.6,0.5-6.9,1.1c-2.1,1.1-3.1,3.2-3.1,6.4v51.6c0,3,0.8,5,2.5,6
		c1.7,1,4.2,1.5,7.5,1.5v2.7h-37.3V272.3z"/>
	<path class="st0" d="M861.7,272.3c4-0.1,6.5-0.9,7.7-2.3c1.1-1.4,1.7-3.5,1.7-6.2v-50.5c-3.3-3.6-5.3-5.8-6-6.4
		c-0.8-0.6-1.8-1-3.1-1.2V203h22.6l36.6,44.5h0.5v-31.3c0-3.6-0.7-6.2-2-7.7s-3.9-2.5-7.9-2.8V203h22.9v2.7
		c-3.3,0.6-5.6,1.3-6.7,2.2c-1.1,0.9-1.7,3-1.7,6.3V277h-3l-46.9-57h-0.7v41.8c0,3.3,0.5,5.6,1.4,7c1.4,2.2,4.3,3.4,8.7,3.6v2.7
		h-24.2V272.3z"/>
	<path class="st0" d="M952.2,275v-2.7c3.1-0.1,5.2-0.5,6.5-1.2c2-1.1,3-3.2,3-6.2v-51.6c0-3.1-1-5.2-3.1-6.3
		c-1.2-0.7-3.3-1.1-6.4-1.2V203h61.4v21.5h-2.6c-1.4-6.9-3.7-11.6-6.9-14.1c-3.2-2.5-9.2-3.8-17.7-3.8c-3.3,0-5.3,0.3-6.2,1
		s-1.3,2-1.3,4v24.7c6.1,0.1,10.2-1,12.3-3.3s3.8-6.4,4.9-12.5h2.7v36h-2.7c-0.8-6.1-2.3-10.3-4.7-12.8c-2.3-2.5-6.6-3.7-12.6-3.7
		v25.8c0,2.3,0.6,3.8,1.7,4.6c1.2,0.8,3.5,1.2,7.2,1.2c6.8,0,12.4-1.3,16.7-4c4.3-2.6,8.1-7.6,11.5-14.8h3l-4.3,22.2H952.2z"/>
	<path class="st0" d="M1078.8,250.2h3.1c1.7,8,4.4,13.8,8.2,17.4c3.8,3.6,8.1,5.4,13,5.4c4.8,0,8.1-1.2,10.1-3.7c2-2.5,3-5.1,3-7.8
		c0-3.2-1-5.8-3.1-7.8c-1.4-1.3-4.2-3-8.4-5.2l-6.8-3.4c-6.7-3.4-11.5-6.8-14.3-10.1c-2.8-3.3-4.2-7.4-4.2-12.3
		c0-5.2,1.8-10.1,5.5-14.6c3.7-4.5,9.3-6.8,16.9-6.8c3.9,0,7.6,0.6,11.2,1.8c3.6,1.2,5.7,1.8,6.2,1.8c1.2,0,2-0.3,2.4-1
		s0.8-1.6,1.1-2.7h3.2v23.2h-3c-1.4-5.4-3.8-10-7.4-13.9c-3.5-3.9-7.8-5.8-12.8-5.8c-3.5,0-6.3,1-8.4,2.9c-2.1,2-3.1,4.3-3.1,7.2
		c0,3.4,1,5.9,2.9,7.6c1.9,1.7,6.1,4.2,12.7,7.5l7.9,4c3.5,1.8,6.3,3.7,8.4,5.9c3.9,4,5.8,8.9,5.8,14.7c0,5.4-2.1,10.4-6.3,15.2
		s-10.9,7.2-20.1,7.2c-2.1,0-4.3-0.2-6.4-0.6c-2.2-0.4-4.3-1-6.4-1.8l-2-0.8c-0.5-0.1-0.9-0.3-1.4-0.3c-0.4-0.1-0.8-0.1-1.1-0.1
		c-1.1,0-1.8,0.3-2.3,1c-0.4,0.6-0.8,1.6-1.1,2.7h-3.1V250.2z"/>
	<path class="st0" d="M1146.1,275v-2.7c3.1-0.1,5.2-0.5,6.5-1.2c2-1.1,3-3.2,3-6.2v-51.6c0-3.1-1-5.2-3.1-6.3
		c-1.2-0.7-3.3-1.1-6.4-1.2V203h61.4v21.5h-2.6c-1.4-6.9-3.7-11.6-6.9-14.1c-3.2-2.5-9.2-3.8-17.7-3.8c-3.3,0-5.3,0.3-6.2,1
		s-1.3,2-1.3,4v24.7c6.1,0.1,10.2-1,12.3-3.3s3.8-6.4,4.9-12.5h2.7v36h-2.7c-0.8-6.1-2.3-10.3-4.7-12.8c-2.3-2.5-6.6-3.7-12.6-3.7
		v25.8c0,2.3,0.6,3.8,1.7,4.6c1.2,0.8,3.5,1.2,7.2,1.2c6.8,0,12.4-1.3,16.7-4c4.3-2.6,8.1-7.6,11.5-14.8h3l-4.3,22.2H1146.1z"/>
	<path class="st0" d="M1228.5,272.3c3.6-0.2,6.1-0.9,7.4-2c1.3-1.2,2-3.7,2-7.7v-47.2c0-4.1-0.8-6.8-2.3-8c-1-0.8-3.4-1.4-7-1.7V203
		h34.3c7.1,0,12.9,0.7,17.3,2.2c8.5,3,12.8,8.5,12.8,16.3c0,5.8-2.2,10.4-6.7,13.7c-3.4,2.5-7,4.1-10.8,4.8l22.7,30.3
		c0.6,0.8,1.2,1.4,1.9,1.6c0.7,0.3,1.5,0.4,2.4,0.5v2.6h-22.2l-24.9-33.3h0v20.9c0,3.7,0.6,6.3,1.9,7.6c1.2,1.3,3.7,2,7.5,2.2v2.7
		h-36V272.3z M1270.1,235.3c3-1.9,4.5-6.2,4.5-12.9c0-4.1-0.6-7.4-1.7-9.8c-2-4.1-5.6-6.1-10.8-6.1c-2.8,0-4.7,0.4-5.6,1.1
		c-0.9,0.7-1.3,1.9-1.3,3.5v27.1C1262.1,238.2,1267.1,237.2,1270.1,235.3z"/>
	<path class="st0" d="M1345.9,203v2.6c-3.8,0.2-6.3,0.5-7.4,1s-1.7,1.5-1.7,3.3c0,0.6,0,1.1,0.1,1.5s0.3,1,0.5,1.5l16.9,39.4h-0.2
		l14-36.1c0.3-0.8,0.6-1.6,0.8-2.5c0.4-1.4,0.6-2.5,0.6-3.3c0-2-0.6-3.3-1.8-3.8s-3.6-0.9-7.3-1.1V203h22.7v2.6
		c-2.6,0.3-4.6,1-5.9,2.3c-1.3,1.2-2.6,3.4-3.8,6.5l-24.3,62.7h-2.8l-27.4-63.9c-1.1-2.6-2.2-4.4-3.4-5.5c-1.2-1.1-3-1.8-5.4-2V203
		H1345.9z"/>
	<path class="st0" d="M1400.6,272.3c3-0.1,5.2-0.4,6.5-1.1c2.2-1.1,3.2-3.2,3.2-6.4v-51.6c0-3.1-1-5.2-3.1-6.3
		c-1.2-0.7-3.5-1.1-6.7-1.2V203h37.3v2.7c-3.3,0.1-5.6,0.5-6.9,1.1c-2.1,1.1-3.1,3.2-3.1,6.4v51.6c0,3,0.8,5,2.5,6
		c1.7,1,4.2,1.5,7.5,1.5v2.7h-37.3V272.3z"/>
	<path class="st0" d="M1504.2,204.1c4.5,1.6,7.1,2.5,7.6,2.5c1.4,0,2.4-0.5,3.3-1.6c0.8-1,1.3-2.1,1.5-3.3h3v24.9h-2.7
		c-2.6-5.4-5.2-9.7-7.9-12.8c-5-5.8-10.6-8.6-16.9-8.6c-7.1,0-12.2,3.1-15.2,9.2c-3,6.2-4.5,14.4-4.5,24.8c0,7.6,0.9,13.9,2.7,18.8
		c3.3,9.2,9.4,13.8,18.4,13.8c5.5,0,10.6-1.5,15.3-4.6c2.7-1.8,5.9-4.6,9.6-8.5l3.2,2.6c-4.2,4.7-7.8,8-11,10.1
		c-5.6,3.7-11.9,5.6-18.7,5.6c-10.5,0-19.3-3.1-26.4-9.4c-7.9-6.9-11.8-16.2-11.8-27.9c0-11.6,3.8-21,11.3-28.2
		c7.1-6.7,15.8-10.1,26-10.1C1495.1,201.6,1499.6,202.5,1504.2,204.1z"/>
	<path class="st0" d="M1539.1,275v-2.7c3.1-0.1,5.2-0.5,6.5-1.2c2-1.1,3-3.2,3-6.2v-51.6c0-3.1-1-5.2-3.1-6.3
		c-1.2-0.7-3.3-1.1-6.4-1.2V203h61.4v21.5h-2.6c-1.4-6.9-3.7-11.6-6.9-14.1c-3.2-2.5-9.2-3.8-17.7-3.8c-3.3,0-5.3,0.3-6.2,1
		s-1.3,2-1.3,4v24.7c6.1,0.1,10.2-1,12.3-3.3s3.8-6.4,4.9-12.5h2.7v36h-2.7c-0.8-6.1-2.3-10.3-4.7-12.8c-2.3-2.5-6.6-3.7-12.6-3.7
		v25.8c0,2.3,0.6,3.8,1.7,4.6c1.2,0.8,3.5,1.2,7.2,1.2c6.8,0,12.4-1.3,16.7-4c4.3-2.6,8.1-7.6,11.5-14.8h3l-4.3,22.2H1539.1z"/>
	<path class="st0" d="M1625.2,250.2h3.1c1.7,8,4.4,13.8,8.2,17.4c3.8,3.6,8.1,5.4,13,5.4c4.8,0,8.1-1.2,10.1-3.7c2-2.5,3-5.1,3-7.8
		c0-3.2-1-5.8-3.1-7.8c-1.4-1.3-4.2-3-8.4-5.2l-6.8-3.4c-6.7-3.4-11.5-6.8-14.3-10.1c-2.8-3.3-4.2-7.4-4.2-12.3
		c0-5.2,1.8-10.1,5.5-14.6c3.7-4.5,9.3-6.8,16.9-6.8c3.9,0,7.6,0.6,11.2,1.8c3.6,1.2,5.7,1.8,6.2,1.8c1.2,0,2-0.3,2.4-1
		s0.8-1.6,1.1-2.7h3.2v23.2h-3c-1.4-5.4-3.8-10-7.4-13.9c-3.5-3.9-7.8-5.8-12.8-5.8c-3.5,0-6.3,1-8.4,2.9c-2.1,2-3.1,4.3-3.1,7.2
		c0,3.4,1,5.9,2.9,7.6c1.9,1.7,6.1,4.2,12.7,7.5l7.9,4c3.5,1.8,6.3,3.7,8.4,5.9c3.9,4,5.8,8.9,5.8,14.7c0,5.4-2.1,10.4-6.3,15.2
		s-10.9,7.2-20.1,7.2c-2.1,0-4.3-0.2-6.4-0.6c-2.2-0.4-4.3-1-6.4-1.8l-2-0.8c-0.5-0.1-0.9-0.3-1.4-0.3c-0.4-0.1-0.8-0.1-1.1-0.1
		c-1.1,0-1.8,0.3-2.3,1c-0.4,0.6-0.8,1.6-1.1,2.7h-3.1V250.2z"/>
</g>
<path class="st0" d="M367.4,65.1C358,52.3,308,65.9,257.7,84c9.3-13.1,17-24,19.5-27.7c7.5-11,3.3-15.7,3.3-15.7
	c-6.1-8.3-37.1-0.5-69.9,10.9c4.3-6.1,7.7-10.9,9-12.8c4.7-6.9,2.1-9.8,2.1-9.8c-8.7-11.8-97,28.2-97,28.2
	c66.6-23.9,75.8-18.7,77.8-16.1c1.5,1.9-1.5,7.2-6.9,15.8c-36.3,13.5-70.4,28.9-70.4,28.9C231.9,47.5,246.7,56,249.9,60.2
	c2.8,3.6-4.3,14.4-15.7,32.6C186.4,111,144.3,130,144.3,130c153.3-55.1,174.5-42.9,179.1-37c4.6,6-9.3,25.4-30.1,58.7
	c-12.4,19.9-25.3,35.5-33.7,44.9c-5.6,6.3-13.3,10.2-21.7,11l-85.8,8.3h103.4c10,0,19.3-4.8,25.1-12.9c21.4-30,73.5-102.9,82-115.4
	C373.3,71.7,367.4,65.1,367.4,65.1z"/>
<path class="st0" d="M12.3,257.6c-1.8-1.1-0.5-3.9,1.5-3.3c1.4,0.4,2.9,0.9,4.3,1.3c1.2,0.3,2.5,0.7,3.7,1c1.2,0.3,2.5,0.7,3.7,1
	c2.4,0.6,4.9,1.1,7.3,1.5c4.9,0.9,9.7,1.2,14.5,1.2c2.4-0.1,4.9-0.1,7.3-0.4c2.4-0.2,4.8-0.5,7.2-1c4.7-0.9,9.1-2.3,13.6-4.2
	c2.3-0.9,4.6-2,7.2-3c2.5-1,5.2-2,7.9-2.8c5.5-1.7,11.2-2.5,16.7-2.9c5.5-0.3,11.1-0.3,16.8,0.4c2.9,0.3,5.8,0.9,8.6,1.7
	c2.9,0.8,5.7,1.8,8.3,3c2.6,1.1,5,2.3,7.2,3.3c2.2,1,4.3,1.8,6.4,2.5c4.2,1.3,8.7,1.9,13.4,2.1c4.8,0.2,9.6,0,14.2-0.7
	c4.6-0.7,8.9-1.8,13.4-3.5c4.5-1.7,9.3-3.9,14.7-5.7c5.4-1.8,11.2-3.1,16.8-3.7c2.8-0.3,5.7-0.4,8.5-0.5c2.8,0,5.6,0,8.5,0.3
	c2.9,0.2,5.8,0.6,8.7,1.3c2.9,0.6,5.8,1.5,8.6,2.6c2.8,1.1,5.4,2.4,7.7,3.6c2.4,1.2,4.5,2.4,6.6,3.3c4.1,1.9,8.2,2.9,12.8,3.5
	c2.3,0.3,4.6,0.4,7,0.4c2.4,0,4.8,0,7.1-0.2c4.6-0.4,9-1.2,13.2-2.8c2.1-0.8,4.2-1.8,6.5-2.8c2.3-1.1,4.7-2.3,7.3-3.4
	c2.6-1.1,5.4-2.2,8.3-2.9c2.9-0.8,5.7-1.4,8.6-1.7c2.9-0.4,5.7-0.5,8.5-0.6c2.8-0.1,5.6,0,8.4,0.2c5.6,0.4,11.4,1.3,16.9,3
	c5.5,1.7,10.6,4.1,15,6c4.5,1.9,8.8,3.4,13.4,4.3c2.3,0.4,4.7,0.8,7.1,1.1c2.4,0.3,4.9,0.4,7.3,0.5c4.9,0.1,9.7-0.1,14.3-1
	c4.7-0.9,9.2-2.6,13.8-4.7c4.6-2.2,9.3-4.6,14.2-6.6c0.1,0,0.1,0,0.2-0.1c2-0.8,3.5,2,1.7,3.2c0,0-0.1,0.1-0.1,0.1
	c-4.3,2.8-8.3,6-12.7,9.1c-2.2,1.5-4.5,3-6.9,4.3c-2.5,1.3-5,2.4-7.7,3.4c-5.3,1.9-10.9,2.8-16.4,3.4c-2.7,0.2-5.5,0.4-8.3,0.4
	c-2.8,0-5.6-0.1-8.4-0.5c-5.6-0.6-11.4-2.2-16.5-4.2c-2.6-1-5-2-7.3-2.9c-2.3-0.9-4.5-1.7-6.7-2.3c-4.4-1.3-9-1.9-13.7-2.2
	c-2.4-0.1-4.8-0.1-7.2,0c-2.4,0.1-4.7,0.3-7,0.6c-4.6,0.7-8.7,1.9-13,3.8c-2.1,1-4.3,2.1-6.7,3.3c-2.4,1.2-5,2.4-7.7,3.4
	c-5.5,2.1-11.4,3.3-17.1,3.8c-2.9,0.3-5.7,0.3-8.5,0.3c-2.8,0-5.7-0.2-8.5-0.5c-2.9-0.3-5.8-0.8-8.7-1.6c-2.9-0.8-5.8-1.8-8.4-3
	c-2.7-1.2-5.1-2.5-7.4-3.6c-2.3-1.2-4.3-2.2-6.4-3c-4.1-1.6-8.3-2.5-13-2.9c-2.3-0.2-4.7-0.3-7.1-0.2c-2.4,0-4.8,0.2-7.1,0.4
	c-4.7,0.5-9.1,1.5-13.5,3c-4.4,1.5-9.1,3.7-14.3,5.6c-2.6,1-5.3,1.9-8.1,2.6c-2.8,0.7-5.7,1.2-8.5,1.6c-2.8,0.4-5.7,0.6-8.5,0.7
	c-2.8,0.1-5.6,0.1-8.4-0.1c-5.6-0.3-11.5-1.2-17.2-3c-2.8-0.9-5.5-2.1-8-3.3c-2.5-1.2-4.7-2.4-6.9-3.3c-2.1-1-4.2-1.8-6.3-2.4
	c-2.1-0.6-4.3-1.1-6.6-1.4c-2.3-0.3-4.6-0.5-7-0.6c-2.4-0.1-4.8-0.1-7.2,0c-4.8,0.2-9.4,0.8-13.9,1.9c-4.5,1.1-9,3-14.2,4.8
	c-2.6,0.9-5.2,1.8-8,2.4c-2.7,0.7-5.6,1.2-8.3,1.5c-2.8,0.3-5.6,0.5-8.3,0.5c-2.8,0.1-5.4,0-8.3-0.3c-5.6-0.5-11-1.7-16.2-3.6
	c-2.6-0.9-5.1-2-7.5-3.1c-1.2-0.6-2.4-1.2-3.6-1.8c-1.2-0.6-2.3-1.3-3.5-2C14.9,259.2,13.6,258.4,12.3,257.6z"/>
</svg>
